-- Merging decision tree log ---
manifest
ADDED from /home/learn_php/AndroidStudioProjects/sketchteamapp/app/src/main/AndroidManifest.xml:2:1-21:12
INJECTED from /home/learn_php/AndroidStudioProjects/sketchteamapp/app/src/main/AndroidManifest.xml:2:1-21:12
INJECTED from /home/learn_php/AndroidStudioProjects/sketchteamapp/app/src/main/AndroidManifest.xml:2:1-21:12
INJECTED from /home/learn_php/AndroidStudioProjects/sketchteamapp/app/src/main/AndroidManifest.xml:2:1-21:12
MERGED from [androidx.appcompat:appcompat:1.0.2] /home/learn_php/.gradle/caches/transforms-2/files-2.1/610daa5d92ebeeccb3a25f4c46fba940/appcompat-1.0.2/AndroidManifest.xml:17:1-22:12
MERGED from [androidx.constraintlayout:constraintlayout:1.1.3] /home/learn_php/.gradle/caches/transforms-2/files-2.1/114f43a17d7db8090d89fdfa522e1790/constraintlayout-1.1.3/AndroidManifest.xml:2:1-11:12
MERGED from [androidx.fragment:fragment:1.0.0] /home/learn_php/.gradle/caches/transforms-2/files-2.1/5f234e227057f9878c4d33af9ae1d2eb/fragment-1.0.0/AndroidManifest.xml:17:1-22:12
MERGED from [androidx.vectordrawable:vectordrawable-animated:1.0.0] /home/learn_php/.gradle/caches/transforms-2/files-2.1/d07c277c641ddf61aa93a0276274fe1a/vectordrawable-animated-1.0.0/AndroidManifest.xml:17:1-22:12
MERGED from [androidx.legacy:legacy-support-core-ui:1.0.0] /home/learn_php/.gradle/caches/transforms-2/files-2.1/bb662777424dc34a9dea419aef124132/legacy-support-core-ui-1.0.0/AndroidManifest.xml:17:1-22:12
MERGED from [androidx.legacy:legacy-support-core-utils:1.0.0] /home/learn_php/.gradle/caches/transforms-2/files-2.1/7b41663af43cd590ebdb7b540ee9e188/legacy-support-core-utils-1.0.0/AndroidManifest.xml:17:1-22:12
MERGED from [androidx.vectordrawable:vectordrawable:1.0.1] /home/learn_php/.gradle/caches/transforms-2/files-2.1/337342c65db9e697cef5305a0216b8fd/vectordrawable-1.0.1/AndroidManifest.xml:17:1-22:12
MERGED from [androidx.loader:loader:1.0.0] /home/learn_php/.gradle/caches/transforms-2/files-2.1/e74169b97bc4240797f9f0ea55695ac8/loader-1.0.0/AndroidManifest.xml:17:1-22:12
MERGED from [androidx.viewpager:viewpager:1.0.0] /home/learn_php/.gradle/caches/transforms-2/files-2.1/5f6191cf048ec36fdcf1d127f0906463/viewpager-1.0.0/AndroidManifest.xml:17:1-22:12
MERGED from [androidx.coordinatorlayout:coordinatorlayout:1.0.0] /home/learn_php/.gradle/caches/transforms-2/files-2.1/887c0ea794a2b4b81aebf3347313d760/coordinatorlayout-1.0.0/AndroidManifest.xml:17:1-22:12
MERGED from [androidx.drawerlayout:drawerlayout:1.0.0] /home/learn_php/.gradle/caches/transforms-2/files-2.1/e692f2df44414b03c457ef0640ae5135/drawerlayout-1.0.0/AndroidManifest.xml:17:1-22:12
MERGED from [androidx.slidingpanelayout:slidingpanelayout:1.0.0] /home/learn_php/.gradle/caches/transforms-2/files-2.1/6c8a7f51f36b578bd3c07c52c1551759/slidingpanelayout-1.0.0/AndroidManifest.xml:17:1-22:12
MERGED from [androidx.customview:customview:1.0.0] /home/learn_php/.gradle/caches/transforms-2/files-2.1/2bf0db473091b120ec2878320c7002b5/customview-1.0.0/AndroidManifest.xml:17:1-22:12
MERGED from [androidx.swiperefreshlayout:swiperefreshlayout:1.0.0] /home/learn_php/.gradle/caches/transforms-2/files-2.1/a406063478d21fc044f8714d58d29090/swiperefreshlayout-1.0.0/AndroidManifest.xml:17:1-22:12
MERGED from [androidx.asynclayoutinflater:asynclayoutinflater:1.0.0] /home/learn_php/.gradle/caches/transforms-2/files-2.1/e81eb3ce7458ac4ad9c28e7d244a9b88/asynclayoutinflater-1.0.0/AndroidManifest.xml:17:1-22:12
MERGED from [androidx.core:core:1.0.1] /home/learn_php/.gradle/caches/transforms-2/files-2.1/fbbb82e606125073e94878048c6af713/core-1.0.1/AndroidManifest.xml:17:1-24:12
MERGED from [androidx.versionedparcelable:versionedparcelable:1.0.0] /home/learn_php/.gradle/caches/transforms-2/files-2.1/d7fa3805530431ea9a719b3e0b7e9a96/versionedparcelable-1.0.0/AndroidManifest.xml:17:1-25:12
MERGED from [androidx.cursoradapter:cursoradapter:1.0.0] /home/learn_php/.gradle/caches/transforms-2/files-2.1/ce4459549afe342533ceab4d915fb6a5/cursoradapter-1.0.0/AndroidManifest.xml:17:1-22:12
MERGED from [androidx.lifecycle:lifecycle-runtime:2.0.0] /home/learn_php/.gradle/caches/transforms-2/files-2.1/3defb70af339d3e38443af55f70194d3/lifecycle-runtime-2.0.0/AndroidManifest.xml:17:1-22:12
MERGED from [androidx.documentfile:documentfile:1.0.0] /home/learn_php/.gradle/caches/transforms-2/files-2.1/76f7f958ce596134a4a9dae355e37988/documentfile-1.0.0/AndroidManifest.xml:17:1-22:12
MERGED from [androidx.localbroadcastmanager:localbroadcastmanager:1.0.0] /home/learn_php/.gradle/caches/transforms-2/files-2.1/a80c49527bc29ce19e0388245eb66464/localbroadcastmanager-1.0.0/AndroidManifest.xml:17:1-22:12
MERGED from [androidx.print:print:1.0.0] /home/learn_php/.gradle/caches/transforms-2/files-2.1/3b3b1cbce6eedf79fc9c7d4ff8aa1fa3/print-1.0.0/AndroidManifest.xml:17:1-22:12
MERGED from [androidx.lifecycle:lifecycle-viewmodel:2.0.0] /home/learn_php/.gradle/caches/transforms-2/files-2.1/6567a906d64c32ce8da68c617bbf4ebb/lifecycle-viewmodel-2.0.0/AndroidManifest.xml:17:1-22:12
MERGED from [androidx.lifecycle:lifecycle-livedata:2.0.0] /home/learn_php/.gradle/caches/transforms-2/files-2.1/4503dd23e8b71e559de45ecc8b3fa639/lifecycle-livedata-2.0.0/AndroidManifest.xml:17:1-22:12
MERGED from [androidx.lifecycle:lifecycle-livedata-core:2.0.0] /home/learn_php/.gradle/caches/transforms-2/files-2.1/fe864308974fcc89e60906b5ce746ead/lifecycle-livedata-core-2.0.0/AndroidManifest.xml:17:1-22:12
MERGED from [androidx.arch.core:core-runtime:2.0.0] /home/learn_php/.gradle/caches/transforms-2/files-2.1/7d5be52874b68c1503a6e12d9a4067e8/core-runtime-2.0.0/AndroidManifest.xml:17:1-22:12
MERGED from [androidx.interpolator:interpolator:1.0.0] /home/learn_php/.gradle/caches/transforms-2/files-2.1/ff2c00fb56b69dfb2bfac801fd2869c9/interpolator-1.0.0/AndroidManifest.xml:17:1-22:12
INJECTED from /home/learn_php/AndroidStudioProjects/sketchteamapp/app/src/main/AndroidManifest.xml:2:1-21:12
INJECTED from /home/learn_php/AndroidStudioProjects/sketchteamapp/app/src/main/AndroidManifest.xml:2:1-21:12
INJECTED from /home/learn_php/AndroidStudioProjects/sketchteamapp/app/src/main/AndroidManifest.xml:2:1-21:12
	package
		ADDED from /home/learn_php/AndroidStudioProjects/sketchteamapp/app/src/main/AndroidManifest.xml:3:5-42
		INJECTED from /home/learn_php/AndroidStudioProjects/sketchteamapp/app/src/main/AndroidManifest.xml
		INJECTED from /home/learn_php/AndroidStudioProjects/sketchteamapp/app/src/main/AndroidManifest.xml
	android:versionName
		INJECTED from /home/learn_php/AndroidStudioProjects/sketchteamapp/app/src/main/AndroidManifest.xml
		ADDED from /home/learn_php/AndroidStudioProjects/sketchteamapp/app/src/main/AndroidManifest.xml:2:1-21:12
		INJECTED from /home/learn_php/AndroidStudioProjects/sketchteamapp/app/src/main/AndroidManifest.xml
	android:versionCode
		INJECTED from /home/learn_php/AndroidStudioProjects/sketchteamapp/app/src/main/AndroidManifest.xml
		ADDED from /home/learn_php/AndroidStudioProjects/sketchteamapp/app/src/main/AndroidManifest.xml:2:1-21:12
		INJECTED from /home/learn_php/AndroidStudioProjects/sketchteamapp/app/src/main/AndroidManifest.xml
	xmlns:android
		ADDED from /home/learn_php/AndroidStudioProjects/sketchteamapp/app/src/main/AndroidManifest.xml:2:11-69
application
ADDED from /home/learn_php/AndroidStudioProjects/sketchteamapp/app/src/main/AndroidManifest.xml:5:5-19:19
MERGED from [androidx.constraintlayout:constraintlayout:1.1.3] /home/learn_php/.gradle/caches/transforms-2/files-2.1/114f43a17d7db8090d89fdfa522e1790/constraintlayout-1.1.3/AndroidManifest.xml:9:5-20
MERGED from [androidx.constraintlayout:constraintlayout:1.1.3] /home/learn_php/.gradle/caches/transforms-2/files-2.1/114f43a17d7db8090d89fdfa522e1790/constraintlayout-1.1.3/AndroidManifest.xml:9:5-20
MERGED from [androidx.core:core:1.0.1] /home/learn_php/.gradle/caches/transforms-2/files-2.1/fbbb82e606125073e94878048c6af713/core-1.0.1/AndroidManifest.xml:22:5-89
MERGED from [androidx.core:core:1.0.1] /home/learn_php/.gradle/caches/transforms-2/files-2.1/fbbb82e606125073e94878048c6af713/core-1.0.1/AndroidManifest.xml:22:5-89
MERGED from [androidx.versionedparcelable:versionedparcelable:1.0.0] /home/learn_php/.gradle/caches/transforms-2/files-2.1/d7fa3805530431ea9a719b3e0b7e9a96/versionedparcelable-1.0.0/AndroidManifest.xml:22:5-23:19
MERGED from [androidx.versionedparcelable:versionedparcelable:1.0.0] /home/learn_php/.gradle/caches/transforms-2/files-2.1/d7fa3805530431ea9a719b3e0b7e9a96/versionedparcelable-1.0.0/AndroidManifest.xml:22:5-23:19
	android:appComponentFactory
		ADDED from [androidx.core:core:1.0.1] /home/learn_php/.gradle/caches/transforms-2/files-2.1/fbbb82e606125073e94878048c6af713/core-1.0.1/AndroidManifest.xml:22:18-86
	android:supportsRtl
		ADDED from /home/learn_php/AndroidStudioProjects/sketchteamapp/app/src/main/AndroidManifest.xml:10:9-35
	android:label
		ADDED from /home/learn_php/AndroidStudioProjects/sketchteamapp/app/src/main/AndroidManifest.xml:8:9-41
	android:roundIcon
		ADDED from /home/learn_php/AndroidStudioProjects/sketchteamapp/app/src/main/AndroidManifest.xml:9:9-54
	android:icon
		ADDED from /home/learn_php/AndroidStudioProjects/sketchteamapp/app/src/main/AndroidManifest.xml:7:9-43
	android:allowBackup
		ADDED from /home/learn_php/AndroidStudioProjects/sketchteamapp/app/src/main/AndroidManifest.xml:6:9-35
	android:theme
		ADDED from /home/learn_php/AndroidStudioProjects/sketchteamapp/app/src/main/AndroidManifest.xml:11:9-40
activity#com.example.sketch_team_app.MainActivity
ADDED from /home/learn_php/AndroidStudioProjects/sketchteamapp/app/src/main/AndroidManifest.xml:12:9-18:20
	android:name
		ADDED from /home/learn_php/AndroidStudioProjects/sketchteamapp/app/src/main/AndroidManifest.xml:12:19-47
intent-filter#action:name:android.intent.action.MAIN+category:name:android.intent.category.LAUNCHER
ADDED from /home/learn_php/AndroidStudioProjects/sketchteamapp/app/src/main/AndroidManifest.xml:13:13-17:29
action#android.intent.action.MAIN
ADDED from /home/learn_php/AndroidStudioProjects/sketchteamapp/app/src/main/AndroidManifest.xml:14:17-69
	android:name
		ADDED from /home/learn_php/AndroidStudioProjects/sketchteamapp/app/src/main/AndroidManifest.xml:14:25-66
category#android.intent.category.LAUNCHER
ADDED from /home/learn_php/AndroidStudioProjects/sketchteamapp/app/src/main/AndroidManifest.xml:16:17-77
	android:name
		ADDED from /home/learn_php/AndroidStudioProjects/sketchteamapp/app/src/main/AndroidManifest.xml:16:27-74
uses-sdk
INJECTED from /home/learn_php/AndroidStudioProjects/sketchteamapp/app/src/main/AndroidManifest.xml reason: use-sdk injection requested
INJECTED from /home/learn_php/AndroidStudioProjects/sketchteamapp/app/src/main/AndroidManifest.xml
INJECTED from /home/learn_php/AndroidStudioProjects/sketchteamapp/app/src/main/AndroidManifest.xml
MERGED from [androidx.appcompat:appcompat:1.0.2] /home/learn_php/.gradle/caches/transforms-2/files-2.1/610daa5d92ebeeccb3a25f4c46fba940/appcompat-1.0.2/AndroidManifest.xml:20:5-44
MERGED from [androidx.appcompat:appcompat:1.0.2] /home/learn_php/.gradle/caches/transforms-2/files-2.1/610daa5d92ebeeccb3a25f4c46fba940/appcompat-1.0.2/AndroidManifest.xml:20:5-44
MERGED from [androidx.constraintlayout:constraintlayout:1.1.3] /home/learn_php/.gradle/caches/transforms-2/files-2.1/114f43a17d7db8090d89fdfa522e1790/constraintlayout-1.1.3/AndroidManifest.xml:5:5-7:41
MERGED from [androidx.constraintlayout:constraintlayout:1.1.3] /home/learn_php/.gradle/caches/transforms-2/files-2.1/114f43a17d7db8090d89fdfa522e1790/constraintlayout-1.1.3/AndroidManifest.xml:5:5-7:41
MERGED from [androidx.fragment:fragment:1.0.0] /home/learn_php/.gradle/caches/transforms-2/files-2.1/5f234e227057f9878c4d33af9ae1d2eb/fragment-1.0.0/AndroidManifest.xml:20:5-44
MERGED from [androidx.fragment:fragment:1.0.0] /home/learn_php/.gradle/caches/transforms-2/files-2.1/5f234e227057f9878c4d33af9ae1d2eb/fragment-1.0.0/AndroidManifest.xml:20:5-44
MERGED from [androidx.vectordrawable:vectordrawable-animated:1.0.0] /home/learn_php/.gradle/caches/transforms-2/files-2.1/d07c277c641ddf61aa93a0276274fe1a/vectordrawable-animated-1.0.0/AndroidManifest.xml:20:5-44
MERGED from [androidx.vectordrawable:vectordrawable-animated:1.0.0] /home/learn_php/.gradle/caches/transforms-2/files-2.1/d07c277c641ddf61aa93a0276274fe1a/vectordrawable-animated-1.0.0/AndroidManifest.xml:20:5-44
MERGED from [androidx.legacy:legacy-support-core-ui:1.0.0] /home/learn_php/.gradle/caches/transforms-2/files-2.1/bb662777424dc34a9dea419aef124132/legacy-support-core-ui-1.0.0/AndroidManifest.xml:20:5-44
MERGED from [androidx.legacy:legacy-support-core-ui:1.0.0] /home/learn_php/.gradle/caches/transforms-2/files-2.1/bb662777424dc34a9dea419aef124132/legacy-support-core-ui-1.0.0/AndroidManifest.xml:20:5-44
MERGED from [androidx.legacy:legacy-support-core-utils:1.0.0] /home/learn_php/.gradle/caches/transforms-2/files-2.1/7b41663af43cd590ebdb7b540ee9e188/legacy-support-core-utils-1.0.0/AndroidManifest.xml:20:5-44
MERGED from [androidx.legacy:legacy-support-core-utils:1.0.0] /home/learn_php/.gradle/caches/transforms-2/files-2.1/7b41663af43cd590ebdb7b540ee9e188/legacy-support-core-utils-1.0.0/AndroidManifest.xml:20:5-44
MERGED from [androidx.vectordrawable:vectordrawable:1.0.1] /home/learn_php/.gradle/caches/transforms-2/files-2.1/337342c65db9e697cef5305a0216b8fd/vectordrawable-1.0.1/AndroidManifest.xml:20:5-44
MERGED from [androidx.vectordrawable:vectordrawable:1.0.1] /home/learn_php/.gradle/caches/transforms-2/files-2.1/337342c65db9e697cef5305a0216b8fd/vectordrawable-1.0.1/AndroidManifest.xml:20:5-44
MERGED from [androidx.loader:loader:1.0.0] /home/learn_php/.gradle/caches/transforms-2/files-2.1/e74169b97bc4240797f9f0ea55695ac8/loader-1.0.0/AndroidManifest.xml:20:5-44
MERGED from [androidx.loader:loader:1.0.0] /home/learn_php/.gradle/caches/transforms-2/files-2.1/e74169b97bc4240797f9f0ea55695ac8/loader-1.0.0/AndroidManifest.xml:20:5-44
MERGED from [androidx.viewpager:viewpager:1.0.0] /home/learn_php/.gradle/caches/transforms-2/files-2.1/5f6191cf048ec36fdcf1d127f0906463/viewpager-1.0.0/AndroidManifest.xml:20:5-44
MERGED from [androidx.viewpager:viewpager:1.0.0] /home/learn_php/.gradle/caches/transforms-2/files-2.1/5f6191cf048ec36fdcf1d127f0906463/viewpager-1.0.0/AndroidManifest.xml:20:5-44
MERGED from [androidx.coordinatorlayout:coordinatorlayout:1.0.0] /home/learn_php/.gradle/caches/transforms-2/files-2.1/887c0ea794a2b4b81aebf3347313d760/coordinatorlayout-1.0.0/AndroidManifest.xml:20:5-44
MERGED from [androidx.coordinatorlayout:coordinatorlayout:1.0.0] /home/learn_php/.gradle/caches/transforms-2/files-2.1/887c0ea794a2b4b81aebf3347313d760/coordinatorlayout-1.0.0/AndroidManifest.xml:20:5-44
MERGED from [androidx.drawerlayout:drawerlayout:1.0.0] /home/learn_php/.gradle/caches/transforms-2/files-2.1/e692f2df44414b03c457ef0640ae5135/drawerlayout-1.0.0/AndroidManifest.xml:20:5-44
MERGED from [androidx.drawerlayout:drawerlayout:1.0.0] /home/learn_php/.gradle/caches/transforms-2/files-2.1/e692f2df44414b03c457ef0640ae5135/drawerlayout-1.0.0/AndroidManifest.xml:20:5-44
MERGED from [androidx.slidingpanelayout:slidingpanelayout:1.0.0] /home/learn_php/.gradle/caches/transforms-2/files-2.1/6c8a7f51f36b578bd3c07c52c1551759/slidingpanelayout-1.0.0/AndroidManifest.xml:20:5-44
MERGED from [androidx.slidingpanelayout:slidingpanelayout:1.0.0] /home/learn_php/.gradle/caches/transforms-2/files-2.1/6c8a7f51f36b578bd3c07c52c1551759/slidingpanelayout-1.0.0/AndroidManifest.xml:20:5-44
MERGED from [androidx.customview:customview:1.0.0] /home/learn_php/.gradle/caches/transforms-2/files-2.1/2bf0db473091b120ec2878320c7002b5/customview-1.0.0/AndroidManifest.xml:20:5-44
MERGED from [androidx.customview:customview:1.0.0] /home/learn_php/.gradle/caches/transforms-2/files-2.1/2bf0db473091b120ec2878320c7002b5/customview-1.0.0/AndroidManifest.xml:20:5-44
MERGED from [androidx.swiperefreshlayout:swiperefreshlayout:1.0.0] /home/learn_php/.gradle/caches/transforms-2/files-2.1/a406063478d21fc044f8714d58d29090/swiperefreshlayout-1.0.0/AndroidManifest.xml:20:5-44
MERGED from [androidx.swiperefreshlayout:swiperefreshlayout:1.0.0] /home/learn_php/.gradle/caches/transforms-2/files-2.1/a406063478d21fc044f8714d58d29090/swiperefreshlayout-1.0.0/AndroidManifest.xml:20:5-44
MERGED from [androidx.asynclayoutinflater:asynclayoutinflater:1.0.0] /home/learn_php/.gradle/caches/transforms-2/files-2.1/e81eb3ce7458ac4ad9c28e7d244a9b88/asynclayoutinflater-1.0.0/AndroidManifest.xml:20:5-44
MERGED from [androidx.asynclayoutinflater:asynclayoutinflater:1.0.0] /home/learn_php/.gradle/caches/transforms-2/files-2.1/e81eb3ce7458ac4ad9c28e7d244a9b88/asynclayoutinflater-1.0.0/AndroidManifest.xml:20:5-44
MERGED from [androidx.core:core:1.0.1] /home/learn_php/.gradle/caches/transforms-2/files-2.1/fbbb82e606125073e94878048c6af713/core-1.0.1/AndroidManifest.xml:20:5-44
MERGED from [androidx.core:core:1.0.1] /home/learn_php/.gradle/caches/transforms-2/files-2.1/fbbb82e606125073e94878048c6af713/core-1.0.1/AndroidManifest.xml:20:5-44
MERGED from [androidx.versionedparcelable:versionedparcelable:1.0.0] /home/learn_php/.gradle/caches/transforms-2/files-2.1/d7fa3805530431ea9a719b3e0b7e9a96/versionedparcelable-1.0.0/AndroidManifest.xml:20:5-44
MERGED from [androidx.versionedparcelable:versionedparcelable:1.0.0] /home/learn_php/.gradle/caches/transforms-2/files-2.1/d7fa3805530431ea9a719b3e0b7e9a96/versionedparcelable-1.0.0/AndroidManifest.xml:20:5-44
MERGED from [androidx.cursoradapter:cursoradapter:1.0.0] /home/learn_php/.gradle/caches/transforms-2/files-2.1/ce4459549afe342533ceab4d915fb6a5/cursoradapter-1.0.0/AndroidManifest.xml:20:5-44
MERGED from [androidx.cursoradapter:cursoradapter:1.0.0] /home/learn_php/.gradle/caches/transforms-2/files-2.1/ce4459549afe342533ceab4d915fb6a5/cursoradapter-1.0.0/AndroidManifest.xml:20:5-44
MERGED from [androidx.lifecycle:lifecycle-runtime:2.0.0] /home/learn_php/.gradle/caches/transforms-2/files-2.1/3defb70af339d3e38443af55f70194d3/lifecycle-runtime-2.0.0/AndroidManifest.xml:20:5-44
MERGED from [androidx.lifecycle:lifecycle-runtime:2.0.0] /home/learn_php/.gradle/caches/transforms-2/files-2.1/3defb70af339d3e38443af55f70194d3/lifecycle-runtime-2.0.0/AndroidManifest.xml:20:5-44
MERGED from [androidx.documentfile:documentfile:1.0.0] /home/learn_php/.gradle/caches/transforms-2/files-2.1/76f7f958ce596134a4a9dae355e37988/documentfile-1.0.0/AndroidManifest.xml:20:5-44
MERGED from [androidx.documentfile:documentfile:1.0.0] /home/learn_php/.gradle/caches/transforms-2/files-2.1/76f7f958ce596134a4a9dae355e37988/documentfile-1.0.0/AndroidManifest.xml:20:5-44
MERGED from [androidx.localbroadcastmanager:localbroadcastmanager:1.0.0] /home/learn_php/.gradle/caches/transforms-2/files-2.1/a80c49527bc29ce19e0388245eb66464/localbroadcastmanager-1.0.0/AndroidManifest.xml:20:5-44
MERGED from [androidx.localbroadcastmanager:localbroadcastmanager:1.0.0] /home/learn_php/.gradle/caches/transforms-2/files-2.1/a80c49527bc29ce19e0388245eb66464/localbroadcastmanager-1.0.0/AndroidManifest.xml:20:5-44
MERGED from [androidx.print:print:1.0.0] /home/learn_php/.gradle/caches/transforms-2/files-2.1/3b3b1cbce6eedf79fc9c7d4ff8aa1fa3/print-1.0.0/AndroidManifest.xml:20:5-44
MERGED from [androidx.print:print:1.0.0] /home/learn_php/.gradle/caches/transforms-2/files-2.1/3b3b1cbce6eedf79fc9c7d4ff8aa1fa3/print-1.0.0/AndroidManifest.xml:20:5-44
MERGED from [androidx.lifecycle:lifecycle-viewmodel:2.0.0] /home/learn_php/.gradle/caches/transforms-2/files-2.1/6567a906d64c32ce8da68c617bbf4ebb/lifecycle-viewmodel-2.0.0/AndroidManifest.xml:20:5-44
MERGED from [androidx.lifecycle:lifecycle-viewmodel:2.0.0] /home/learn_php/.gradle/caches/transforms-2/files-2.1/6567a906d64c32ce8da68c617bbf4ebb/lifecycle-viewmodel-2.0.0/AndroidManifest.xml:20:5-44
MERGED from [androidx.lifecycle:lifecycle-livedata:2.0.0] /home/learn_php/.gradle/caches/transforms-2/files-2.1/4503dd23e8b71e559de45ecc8b3fa639/lifecycle-livedata-2.0.0/AndroidManifest.xml:20:5-44
MERGED from [androidx.lifecycle:lifecycle-livedata:2.0.0] /home/learn_php/.gradle/caches/transforms-2/files-2.1/4503dd23e8b71e559de45ecc8b3fa639/lifecycle-livedata-2.0.0/AndroidManifest.xml:20:5-44
MERGED from [androidx.lifecycle:lifecycle-livedata-core:2.0.0] /home/learn_php/.gradle/caches/transforms-2/files-2.1/fe864308974fcc89e60906b5ce746ead/lifecycle-livedata-core-2.0.0/AndroidManifest.xml:20:5-44
MERGED from [androidx.lifecycle:lifecycle-livedata-core:2.0.0] /home/learn_php/.gradle/caches/transforms-2/files-2.1/fe864308974fcc89e60906b5ce746ead/lifecycle-livedata-core-2.0.0/AndroidManifest.xml:20:5-44
MERGED from [androidx.arch.core:core-runtime:2.0.0] /home/learn_php/.gradle/caches/transforms-2/files-2.1/7d5be52874b68c1503a6e12d9a4067e8/core-runtime-2.0.0/AndroidManifest.xml:20:5-44
MERGED from [androidx.arch.core:core-runtime:2.0.0] /home/learn_php/.gradle/caches/transforms-2/files-2.1/7d5be52874b68c1503a6e12d9a4067e8/core-runtime-2.0.0/AndroidManifest.xml:20:5-44
MERGED from [androidx.interpolator:interpolator:1.0.0] /home/learn_php/.gradle/caches/transforms-2/files-2.1/ff2c00fb56b69dfb2bfac801fd2869c9/interpolator-1.0.0/AndroidManifest.xml:20:5-44
MERGED from [androidx.interpolator:interpolator:1.0.0] /home/learn_php/.gradle/caches/transforms-2/files-2.1/ff2c00fb56b69dfb2bfac801fd2869c9/interpolator-1.0.0/AndroidManifest.xml:20:5-44
INJECTED from /home/learn_php/AndroidStudioProjects/sketchteamapp/app/src/main/AndroidManifest.xml
INJECTED from /home/learn_php/AndroidStudioProjects/sketchteamapp/app/src/main/AndroidManifest.xml
	android:targetSdkVersion
		INJECTED from /home/learn_php/AndroidStudioProjects/sketchteamapp/app/src/main/AndroidManifest.xml
		ADDED from /home/learn_php/AndroidStudioProjects/sketchteamapp/app/src/main/AndroidManifest.xml
		INJECTED from /home/learn_php/AndroidStudioProjects/sketchteamapp/app/src/main/AndroidManifest.xml
	android:minSdkVersion
		INJECTED from /home/learn_php/AndroidStudioProjects/sketchteamapp/app/src/main/AndroidManifest.xml
		ADDED from /home/learn_php/AndroidStudioProjects/sketchteamapp/app/src/main/AndroidManifest.xml
		INJECTED from /home/learn_php/AndroidStudioProjects/sketchteamapp/app/src/main/AndroidManifest.xml
